{

  "rules": {
      /*
      "max-line-length": [
          true,
          2048
      ],*/
      "no-unnecessary-initializer": false,
      "no-var-requires": true,
      "no-null-keyword": false,
      "no-consecutive-blank-lines": false,
      "interface-name": false,
      "no-empty-interface": false,
      "no-namespace": false,
      "ordered-imports": false,
      "object-literal-sort-keys": false,
      "arrow-parens": false,
      "no-string-literal": false,
      "member-ordering": [
          false,
          {
              "order": [
                  "public-static-field",
                  "public-static-method",
                  "protected-static-field",
                  "protected-static-method",
                  "private-static-field",
                  "private-static-method",
                  "public-instance-field",
                  "protected-instance-field",
                  "private-instance-field",
                  "public-constructor",
                  "protected-constructor",
                  "private-constructor",
                  "public-instance-method",
                  "protected-instance-method",
                  "private-instance-method"
              ]
          }
      ],
      "no-console": [
          true,
          "debug",
          "info",
          "time",
          "timeEnd",
          "trace"
      ],
      "no-inferrable-types": [
          true,
          "ignore-params"
      ],
      "no-switch-case-fall-through": true,
      "typedef": [
          false,
          "call-signature",
          "parameter"
      ]
      // "trailing-comma": [
      //     true,
      //     {
      //         "multiline": {
      //             "objects": "always",
      //             "arrays": "always",
      //             "functions": "never",
      //             "typeLiterals": "ignore"
      //         },
      //         "singleline": "never"
      //     }
      // ]
  }
}
