{
    "slug": "getir-backend-assignment",
    "env": "DEVELOPMENT",
    "DB": {
        "CONNECTION": "MONGO",
        "CONFIGS": {
            "MONGO": [{
                "server": "ATLAS",
                "name": "getir-case-study",
                "servers": [],
                "url": "mongodb+srv://challengeUser:WUMglwNBaydH8Yvu@challenge-xzwqd.mongodb.net/getir-case-study?retryWrites=true",
                "replicaSet": null,
                "database": "getir-case-study",
                "options": {
                    "useNewUrlParser": true,
                    "useCreateIndex": true,
                    "useFindAndModify": false,
                    "autoIndex": false,
                    "poolSize": 10,
                    "bufferMaxEntries": 0,
                    "connectTimeoutMS": 10000,
                    "socketTimeoutMS": 45000,
                    "family": 4,
                    "useUnifiedTopology": true
                }
            }]
        }
    },
    "SERVER": {
        "NAME": "Getir Practical Assignment",
        "ENV": "DEVELOPMENT",
        "URL": "http://localhost:8017",
        "PORT": 8017
    },
    "COMPANY": {
        "NAME": "Getir Case Study",
        "SHORT_NAME": "Getir",
        "URL": "https://bitbucket.org/sxman007/getir-backend-assignment"
    },
    "API_CONFIG": {
        "URL_PRIFIX": "/api"
    }
}